<?xml version="1.0" encoding="UTF-8"?>
<svg width="24px" height="24px" viewBox="0 0 24 24" version="1.1" xmlns="http://www.w3.org/2000/svg" xmlns:xlink="http://www.w3.org/1999/xlink">
    <!-- Generator: Sketch 48.1 (47250) - http://www.bohemiancoding.com/sketch -->
    <title>icon/20px/edit-filled</title>
    <desc>Created with Sketch.</desc>
    <defs>
        <path d="M3.80589403,19.014231 L4.58589403,15.205231 L8.79489403,19.414231 L4.98589403,20.194231 C4.28289403,20.338231 3.66189403,19.717231 3.80589403,19.014231 Z M19.629294,6.49183097 C20.410294,7.27283097 20.410294,8.53883097 19.629294,9.31983097 L9.87229403,19.077831 L4.92229403,14.127831 L14.679294,4.36983097 C15.070294,3.97983097 15.582294,3.78483097 16.094294,3.78483097 C16.605294,3.78483097 17.117294,3.97983097 17.508294,4.36983097 L19.629294,6.49183097 Z" id="path-1"></path>
    </defs>
    <g id="Symbols" stroke="none" stroke-width="1" fill="none" fill-rule="evenodd">
        <g id="icon/20px/edit-filled">
            <mask id="mask-2" fill="white">
                <use xlink:href="#path-1"></use>
            </mask>
            <use id="edit-filled" fill="#3F4F71" xlink:href="#path-1"></use>
        </g>
    </g>
</svg>