<?xml version="1.0" encoding="UTF-8"?>
<svg width="24px" height="24px" viewBox="0 0 24 24" version="1.1" xmlns="http://www.w3.org/2000/svg" xmlns:xlink="http://www.w3.org/1999/xlink">
    <!-- Generator: Sketch 48.1 (47250) - http://www.bohemiancoding.com/sketch -->
    <title>icon/20px/file</title>
    <desc>Created with Sketch.</desc>
    <defs>
        <path d="M17,10.0052 L19,10.0052 L19,19.0002 C19,20.1042 18.105,21.0002 17,21.0002 L7,21.0002 C5.895,21.0002 5,20.1042 5,19.0002 L5,5.0002 C5,3.8952 5.895,3.0002 7,3.0002 L12.275,3.0002 C12.744,3.0002 13.197,3.1642 13.557,3.4642 L18.631,7.7002 C18.858,7.8902 18.99,8.1712 18.99,8.4682 L18.99,8.9892 L14.49,8.9892 C13.661,8.9892 12.99,8.3182 12.99,7.4892 L12.99,5.0002 L7,5.0002 L7,19.0002 L17,19.0002 L17,10.0052 Z M8,13 C8,12.4477153 8.45303631,12 8.99703014,12 L15.0029699,12 C15.5536144,12 16,12.4438648 16,13 C16,13.5522847 15.5469637,14 15.0029699,14 L8.99703014,14 C8.4463856,14 8,13.5561352 8,13 Z M8,16 C8,15.4477153 8.44335318,15 9.0093689,15 L10.9906311,15 C11.5480902,15 12,15.4438648 12,16 C12,16.5522847 11.5566468,17 10.9906311,17 L9.0093689,17 C8.45190985,17 8,16.5561352 8,16 Z" id="path-1"></path>
    </defs>
    <g id="Symbols" stroke="none" stroke-width="1" fill="none" fill-rule="evenodd">
        <g id="icon/20px/file">
            <mask id="mask-2" fill="white">
                <use xlink:href="#path-1"></use>
            </mask>
            <use id="Mask" fill="#3F4F71" xlink:href="#path-1"></use>
        </g>
    </g>
</svg>