<?xml version="1.0" encoding="UTF-8"?>
<svg width="24px" height="24px" viewBox="0 0 24 24" version="1.1" xmlns="http://www.w3.org/2000/svg" xmlns:xlink="http://www.w3.org/1999/xlink">
    <!-- Generator: Sketch 48.1 (47250) - http://www.bohemiancoding.com/sketch -->
    <title>icon/20px/subtask</title>
    <desc>Created with Sketch.</desc>
    <defs>
        <path d="M19,7.00000836 C20.105111,7.00316447 21,7.89901542 21,9.00585866 L21,18.9941413 C21,20.1019465 20.1029399,21 18.9941413,21 L9.00585866,21 C7.90000531,21 7.00316514,20.1060981 7.00000836,19 L17.9991283,19 C18.5553691,19 19,18.5518945 19,17.9991283 L19,7.00000777 Z M3,5.00585866 C3,3.89805351 3.89706013,3 5.00585866,3 L14.9941413,3 C16.1019465,3 17,3.89706013 17,5.00585866 L17,14.9941413 C17,16.1019465 16.1029399,17 14.9941413,17 L5.00585866,17 C3.89805351,17 3,16.1029399 3,14.9941413 L3,5.00585866 Z M5,5 L5,15 L15,15 L15,5 L5,5 Z M7.70710678,9.29289322 L9,10.5857864 L12.2928932,7.29289322 C12.6834175,6.90236893 13.3165825,6.90236893 13.7071068,7.29289322 C14.0976311,7.68341751 14.0976311,8.31658249 13.7071068,8.70710678 L9.70710678,12.7071068 C9.31658249,13.0976311 8.68341751,13.0976311 8.29289322,12.7071068 L6.29289322,10.7071068 C5.90236893,10.3165825 5.90236893,9.68341751 6.29289322,9.29289322 C6.68341751,8.90236893 7.31658249,8.90236893 7.70710678,9.29289322 Z" id="path-1"></path>
    </defs>
    <g id="Symbols" stroke="none" stroke-width="1" fill="none" fill-rule="evenodd">
        <g id="icon/20px/subtask">
            <mask id="mask-2" fill="white">
                <use xlink:href="#path-1"></use>
            </mask>
            <use id="Combined-Shape" fill="#3F4F71" fill-rule="nonzero" xlink:href="#path-1"></use>
        </g>
    </g>
</svg>