<?xml version="1.0" encoding="UTF-8"?>
<svg width="24px" height="24px" viewBox="0 0 24 24" version="1.1" xmlns="http://www.w3.org/2000/svg" xmlns:xlink="http://www.w3.org/1999/xlink">
    <!-- Generator: Sketch 48.1 (47250) - http://www.bohemiancoding.com/sketch -->
    <title>icon/20px/vid-full-connection-circle</title>
    <desc>Created with Sketch.</desc>
    <defs>
        <path d="M12,22 C6.4771525,22 2,17.5228475 2,12 C2,6.4771525 6.4771525,2 12,2 C17.5228475,2 22,6.4771525 22,12 C22,17.5228475 17.5228475,22 12,22 Z M14,8.99703014 L14,15.0029699 C14,15.5469637 14.4477153,16 15,16 C15.5561352,16 16,15.5536144 16,15.0029699 L16,8.99703014 C16,8.45303631 15.5522847,8 15,8 C14.4438648,8 14,8.4463856 14,8.99703014 Z M11,10.990778 L11,15.009222 C11,15.5490248 11.4477153,16 12,16 C12.5561352,16 13,15.5564136 13,15.009222 L13,10.990778 C13,10.4509752 12.5522847,10 12,10 C11.4438648,10 11,10.4435864 11,10.990778 Z M8,13.9989566 L8,15.0010434 C8,15.5573397 8.44771525,16 9,16 C9.55613518,16 10,15.5527519 10,15.0010434 L10,13.9989566 C10,13.4426603 9.55228475,13 9,13 C8.44386482,13 8,13.4472481 8,13.9989566 Z" id="path-1"></path>
    </defs>
    <g id="Symbols" stroke="none" stroke-width="1" fill="none" fill-rule="evenodd">
        <g id="icon/20px/vid-full-connection-circle">
            <mask id="mask-2" fill="white">
                <use xlink:href="#path-1"></use>
            </mask>
            <use id="Combined-Shape" fill="#42526E" xlink:href="#path-1"></use>
        </g>
    </g>
</svg>