<?xml version="1.0" encoding="UTF-8"?>
<svg width="16px" height="16px" viewBox="0 0 16 16" version="1.1" xmlns="http://www.w3.org/2000/svg" xmlns:xlink="http://www.w3.org/1999/xlink">
    <!-- Generator: Sketch 48.2 (47327) - http://www.bohemiancoding.com/sketch -->
    <title>icon/16px/arrow-down-circle-16px</title>
    <desc>Created with Sketch.</desc>
    <defs>
        <path d="M8,15 C4.13400675,15 1,11.8659932 1,8 C1,4.13400675 4.13400675,1 8,1 C11.8659932,1 15,4.13400675 15,8 C15,11.8659932 11.8659932,15 8,15 Z M7.2958,5.2 L7.2958,6.8639 L7.2958,8.2016 L7.2958,9.1102 L6.4005,8.2198 C6.1261,7.9468 5.6816,7.9468 5.4058,8.2198 C5.2686,8.357 5.2,8.5362 5.2,8.7147 C5.2,8.8939 5.2686,9.0731 5.4058,9.211 L7.5016,11.2949 C7.6388,11.4314 7.8187,11.5 7.9993,11.5 C8.1792,11.5 8.3598,11.4314 8.4977,11.2949 L10.5935,9.211 C10.8686,8.9366 10.8686,8.4935 10.5935,8.2198 C10.3184,7.9468 9.8732,7.9468 9.5988,8.2198 L8.7035,9.1102 L8.7035,8.2016 L8.7035,6.8639 L8.7035,5.2 C8.7035,4.8136 8.3885,4.5 8,4.5 C7.6115,4.5 7.2958,4.8136 7.2958,5.2 Z" id="path-1"></path>
    </defs>
    <g id="Symbols" stroke="none" stroke-width="1" fill="none" fill-rule="evenodd">
        <g id="icon/16px/arrow-down-circle">
            <mask id="mask-2" fill="white">
                <use xlink:href="#path-1"></use>
            </mask>
            <use id="Combined-Shape" fill="#42526E" fill-rule="nonzero" xlink:href="#path-1"></use>
        </g>
    </g>
</svg>