<?xml version="1.0" encoding="UTF-8"?>
<svg width="16px" height="16px" viewBox="0 0 16 16" version="1.1" xmlns="http://www.w3.org/2000/svg" xmlns:xlink="http://www.w3.org/1999/xlink">
    <!-- Generator: Sketch 48.2 (47327) - http://www.bohemiancoding.com/sketch -->
    <title>icon/16px/audio-circle-16px</title>
    <desc>Created with Sketch.</desc>
    <defs>
        <path d="M8,15 C4.13400675,15 1,11.8659932 1,8 C1,4.13400675 4.13400675,1 8,1 C11.8659932,1 15,4.13400675 15,8 C15,11.8659932 11.8659932,15 8,15 Z M10.8,6.09817977 L10.8,5.47074317 C10.8,5.30444926 10.664766,5.18378805 10.4979464,5.20177666 L6.90205364,5.58953144 C6.73030322,5.60805176 6.6,5.75710576 6.6,5.92364047 L6.6,6.63962841 L6.6,8.75974703 C6.49052738,8.72105397 6.3727224,8.7 6.25,8.7 C5.67010102,8.7 5.2,9.17010103 5.2,9.75 C5.2,10.329899 5.67010102,10.8 6.25,10.8 C6.80637701,10.8 7.26168269,10.3672622 7.29770369,9.81999993 L7.3,9.81999993 L7.3,6.90531171 L10.1,6.60338018 L10.1,8.059747 C9.99052735,8.02105398 9.87272239,8 9.75,8 C9.17010103,8 8.7,8.47010102 8.7,9.05 C8.7,9.62989897 9.17010103,10.1 9.75,10.1 C10.306377,10.1 10.7616826,9.66726224 10.7977036,9.12 L10.8,9.12 L10.8,6.09817977 Z" id="path-1"></path>
    </defs>
    <g id="Symbols" stroke="none" stroke-width="1" fill="none" fill-rule="evenodd">
        <g id="icon/16px/audio-circle">
            <mask id="mask-2" fill="white">
                <use xlink:href="#path-1"></use>
            </mask>
            <use id="Combined-Shape" fill="#42526E" fill-rule="nonzero" xlink:href="#path-1"></use>
        </g>
    </g>
</svg>