<?xml version="1.0" encoding="UTF-8"?>
<svg width="16px" height="16px" viewBox="0 0 16 16" version="1.1" xmlns="http://www.w3.org/2000/svg" xmlns:xlink="http://www.w3.org/1999/xlink">
    <!-- Generator: Sketch 48.2 (47327) - http://www.bohemiancoding.com/sketch -->
    <title>icon/16px/backlog-16px</title>
    <desc>Created with Sketch.</desc>
    <defs>
        <path d="M1.27388592,5.76109286 L1.27388592,3.28327858 C1.27388592,2.17870908 2.16931642,1.28327858 3.27388592,1.28327858 L11.2335093,1.28327858 C12.3380788,1.28327858 13.2335093,2.17870908 13.2335093,3.28327858 L13.2335093,4.33341542 C14.0923681,4.55799823 14.7261141,5.33923351 14.7261141,6.2684881 L14.7261141,6.74630238 C14.7261141,7.67555697 14.0923681,8.45679225 13.2335093,8.68137505 L13.2335093,12.7167214 C13.2335093,13.8212909 12.3380788,14.7167214 11.2335093,14.7167214 L3.27388592,14.7167214 C2.16931642,14.7167214 1.27388592,13.8212909 1.27388592,12.7167214 L1.27388592,7.25369762 L2.78527599,7.25369762 L2.78527599,5.76109286 L1.27388592,5.76109286 Z M4.27620499,5.76109286 L4.27620499,7.25369762 L13.2335093,7.25369762 L13.2335093,5.76109286 L4.27620499,5.76109286 Z M2.78527599,2.77588334 L2.78527599,4.2684881 L11.7425803,4.2684881 L11.7425803,2.77588334 L2.78527599,2.77588334 Z M2.78527599,8.74630238 L2.78527599,10.2389071 L11.7425803,10.2389071 L11.7425803,8.74630238 L2.78527599,8.74630238 Z M2.78527599,11.7315119 L2.78527599,13.2241167 L11.7425803,13.2241167 L11.7425803,11.7315119 L2.78527599,11.7315119 Z" id="path-1"></path>
    </defs>
    <g id="Symbols" stroke="none" stroke-width="1" fill="none" fill-rule="evenodd">
        <g id="icon/16px/backlog">
            <mask id="mask-2" fill="white">
                <use xlink:href="#path-1"></use>
            </mask>
            <use id="Combined-Shape" fill="#42526E" xlink:href="#path-1"></use>
        </g>
    </g>
</svg>