<?xml version="1.0" encoding="UTF-8"?>
<svg width="16px" height="16px" viewBox="0 0 16 16" version="1.1" xmlns="http://www.w3.org/2000/svg" xmlns:xlink="http://www.w3.org/1999/xlink">
    <!-- Generator: Sketch 48.2 (47327) - http://www.bohemiancoding.com/sketch -->
    <title>icon/16px/board-16px</title>
    <desc>Created with Sketch.</desc>
    <defs>
        <path d="M3.17187287,2.53749829 L12.8281271,2.53749829 C13.9326966,2.53749829 14.8281271,3.43292879 14.8281271,4.53749829 L14.8281271,11.4625017 C14.8281271,12.5670712 13.9326966,13.4625017 12.8281271,13.4625017 L3.17187287,13.4625017 C2.06730337,13.4625017 1.17187287,12.5670712 1.17187287,11.4625017 L1.17187287,4.53749829 C1.17187287,3.43292879 2.06730337,2.53749829 3.17187287,2.53749829 Z M10.7312509,3.90312372 L10.7312509,12.0968763 L13.4671129,12.0968763 L13.4671129,3.90312372 L10.7312509,3.90312372 Z M6.62976342,3.90312372 L6.62976342,12.0968763 L9.36562543,12.0968763 L9.36562543,3.90312372 L6.62976342,3.90312372 Z M2.53288714,3.90312372 L2.53288714,12.0968763 L5.26874915,12.0968763 L5.26874915,3.90312372 L2.53288714,3.90312372 Z" id="path-1"></path>
    </defs>
    <g id="Symbols" stroke="none" stroke-width="1" fill="none" fill-rule="evenodd">
        <g id="icon/16px/board">
            <mask id="mask-2" fill="white">
                <use xlink:href="#path-1"></use>
            </mask>
            <use id="Combined-Shape" fill="#42526E" xlink:href="#path-1"></use>
        </g>
    </g>
</svg>