<?xml version="1.0" encoding="UTF-8"?>
<svg width="16px" height="16px" viewBox="0 0 16 16" version="1.1" xmlns="http://www.w3.org/2000/svg" xmlns:xlink="http://www.w3.org/1999/xlink">
    <!-- Generator: Sketch 48.2 (47327) - http://www.bohemiancoding.com/sketch -->
    <title>icon/16px/chevron-right-circle-16px</title>
    <desc>Created with Sketch.</desc>
    <defs>
        <path d="M1,8 C1,11.866 4.134,15 8,15 C11.866,15 15,11.866 15,8 C15,4.134 11.866,1 8,1 C4.134,1 1,4.134 1,8 Z M6.805,10.596 C6.669,10.461 6.599,10.282 6.599,10.104 C6.599,9.925 6.669,9.747 6.805,9.611 L8.434,7.997 L6.813,6.387 C6.538,6.117 6.538,5.676 6.813,5.405 C7.087,5.132 7.531,5.132 7.805,5.405 L9.874,7.455 C10.025,7.603 10.099,7.798 10.099,7.993 C10.099,8.188 10.025,8.385 9.874,8.538 L7.799,10.596 C7.661,10.733 7.481,10.8 7.301,10.8 C7.121,10.8 6.941,10.733 6.805,10.596 Z" id="path-1"></path>
    </defs>
    <g id="Symbols" stroke="none" stroke-width="1" fill="none" fill-rule="evenodd">
        <g id="icon/16px/chevron-right-circle">
            <mask id="mask-2" fill="white">
                <use xlink:href="#path-1"></use>
            </mask>
            <use id="Clip-2" fill="#42526E" xlink:href="#path-1"></use>
        </g>
    </g>
</svg>