<?xml version="1.0" encoding="UTF-8"?>
<svg width="16px" height="16px" viewBox="0 0 16 16" version="1.1" xmlns="http://www.w3.org/2000/svg" xmlns:xlink="http://www.w3.org/1999/xlink">
    <!-- Generator: Sketch 48.2 (47327) - http://www.bohemiancoding.com/sketch -->
    <title>icon/16px/image-resize-16px</title>
    <desc>Created with Sketch.</desc>
    <defs>
        <path d="M11.695851,5.22267194 L11.695851,6.51426789 C11.695851,6.92250032 12.0267888,7.25343809 12.4350212,7.25343809 C12.8432537,7.25343809 13.1741914,6.92250032 13.1741914,6.51426789 L13.1741914,3.63889578 C13.1741914,3.19000899 12.809991,2.82580856 12.3611042,2.82580856 L9.47834041,2.82580856 C9.07010798,2.82580856 8.73917021,3.15674633 8.73917021,3.56497876 C8.73917021,3.9732112 9.07010798,4.30414897 9.47834041,4.30414897 L10.5236849,4.30414897 L4.30414897,10.5236849 L4.30414897,9.47834041 C4.30414897,9.06957929 3.97300072,8.73917021 3.56497876,8.73917021 C3.15695681,8.73917021 2.82580856,9.06957929 2.82580856,9.47834041 L2.82580856,12.3537125 C2.82580856,12.8023888 3.19021947,13.1667997 3.63889578,13.1667997 L6.52165959,13.1667997 C6.93042071,13.1667997 7.26082979,12.8356515 7.26082979,12.4276295 C7.26082979,12.0196076 6.93042071,11.6884593 6.52165959,11.6884593 L5.23006364,11.6884593 L11.695851,5.22267194 Z M1.34746814,3.33937061 C1.34746814,2.23927326 2.24111071,1.34746814 3.33937061,1.34746814 L12.6606294,1.34746814 C13.7607267,1.34746814 14.6525319,2.24111071 14.6525319,3.33937061 L14.6525319,12.6606294 C14.6525319,13.7607267 13.7588893,14.6525319 12.6606294,14.6525319 L3.33937061,14.6525319 C2.23927326,14.6525319 1.34746814,13.7588893 1.34746814,12.6606294 L1.34746814,3.33937061 Z" id="path-1"></path>
    </defs>
    <g id="Symbols" stroke="none" stroke-width="1" fill="none" fill-rule="evenodd">
        <g id="icon/16px/image-resize">
            <mask id="mask-2" fill="white">
                <use xlink:href="#path-1"></use>
            </mask>
            <use id="Combined-Shape" fill="#42526E" xlink:href="#path-1"></use>
        </g>
    </g>
</svg>