<?xml version="1.0" encoding="UTF-8"?>
<svg width="16px" height="16px" viewBox="0 0 16 16" version="1.1" xmlns="http://www.w3.org/2000/svg" xmlns:xlink="http://www.w3.org/1999/xlink">
    <!-- Generator: Sketch 48.2 (47327) - http://www.bohemiancoding.com/sketch -->
    <title>icon/16px/info-circle-16px</title>
    <desc>Created with Sketch.</desc>
    <defs></defs>
    <g id="Symbols" stroke="none" stroke-width="1" fill="none" fill-rule="evenodd">
        <g id="icon/16px/info-circle" fill="#3F4F71">
            <path d="M8,13.6 C4.9123,13.6 2.4,11.0877 2.4,8 C2.4,4.9123 4.9123,2.4 8,2.4 C11.0877,2.4 13.6,4.9123 13.6,8 C13.6,11.0877 11.0877,13.6 8,13.6 M8,6 C7.448,6 7,5.552 7,5 C7,4.448 7.448,4 8,4 C8.552,4 9,4.448 9,5 C9,5.552 8.552,6 8,6 Z M9,11 C9,11.552 8.552,12 8,12 C7.448,12 7,11.552 7,11 L7,8 C7,7.448 7.448,7 8,7 C8.552,7 9,7.448 9,8 L9,11 Z M8,1 C4.1339,1 1,4.1339 1,8 C1,11.8661 4.1339,15 8,15 C11.8661,15 15,11.8661 15,8 C15,4.1339 11.8661,1 8,1" id="info-circle"></path>
        </g>
    </g>
</svg>