<?xml version="1.0" encoding="UTF-8"?>
<svg width="16px" height="16px" viewBox="0 0 16 16" version="1.1" xmlns="http://www.w3.org/2000/svg" xmlns:xlink="http://www.w3.org/1999/xlink">
    <!-- Generator: Sketch 48.2 (47327) - http://www.bohemiancoding.com/sketch -->
    <title>confluence/16px/Insert-numbered-column</title>
    <desc>Created with Sketch.</desc>
    <defs></defs>
    <g id="Editor-icons---v2" stroke="none" stroke-width="1" fill="none" fill-rule="evenodd">
        <g id="confluence/16px/Insert-numbered-column" fill="#42526E">
            <path d="M1,13 L1,3 C1,1.8954305 1.8954305,1 3,1 L13,1 C14.1045695,1 15,1.8954305 15,3 L15,13 C15,14.1045695 14.1045695,15 13,15 L3,15 C1.8954305,15 1,14.1045695 1,13 Z M8,13 L13,13 L13,9 L8,9 L8,13 Z M8,7 L8,3 L13,3 L13,7 L8,7 Z M4,6 L4,4 L3,4 L3,3 L5,3 L5,6 L6,6 L6,7 L3,7 L3,6 L4,6 Z M3,10 L3,9 L6,9 L6,9.9 L4.2,12 L6,12 L6,13 L3,13 L3,12.1 L4.8,10 L3,10 Z" id="Combined-Shape"></path>
        </g>
    </g>
</svg>