<?xml version="1.0" encoding="UTF-8"?>
<svg width="16px" height="16px" viewBox="0 0 16 16" version="1.1" xmlns="http://www.w3.org/2000/svg" xmlns:xlink="http://www.w3.org/1999/xlink">
    <!-- Generator: Sketch 48.2 (47327) - http://www.bohemiancoding.com/sketch -->
    <title>icon/16px/issue-raise-16px</title>
    <desc>Created with Sketch.</desc>
    <defs>
        <path d="M8.74666664,7.25333333 L9.50021907,7.25333333 C9.90878876,7.25333333 10.2399999,7.5847524 10.2399999,8 C10.2399999,8.41237261 9.90327181,8.74666667 9.50021907,8.74666667 L8.74666664,8.74666667 L8.74666664,9.50021912 C8.74666664,9.90878882 8.41524759,10.24 8,10.24 C7.5876274,10.24 7.25333336,9.90327187 7.25333336,9.50021912 L7.25333336,8.74666667 L6.49978093,8.74666667 C6.09121124,8.74666667 5.76000007,8.4152476 5.76000007,8 C5.76000007,7.58762739 6.09672819,7.25333333 6.49978093,7.25333333 L7.25333336,7.25333333 L7.25333336,6.49978088 C7.25333336,6.09121118 7.58475241,5.75999999 8,5.75999999 C8.4123726,5.75999999 8.74666664,6.09672813 8.74666664,6.49978088 L8.74666664,7.25333333 Z M1.28000021,5.01970254 C1.28000021,4.19143969 1.94649188,3.51999998 2.76966684,3.51999998 L13.2303332,3.51999998 C14.0530533,3.51999998 14.7199998,4.19345625 14.7199998,5.01970254 L14.7199998,10.9802975 C14.7199998,11.8085603 14.0535081,12.48 13.2303332,12.48 L2.76966684,12.48 C1.94694668,12.48 1.28000021,11.8065437 1.28000021,10.9802975 L1.28000021,5.01970254 Z M2.77699759,10.9802975 C2.77699759,10.9850391 13.2266665,10.9866667 13.2266665,10.9866667 C13.2226181,10.9866667 13.2230024,5.01970254 13.2230024,5.01970254 C13.2230024,5.01496093 2.7733335,5.01333332 2.7733335,5.01333332 C2.77738189,5.01333332 2.77699759,10.9802975 2.77699759,10.9802975 Z" id="path-1"></path>
    </defs>
    <g id="Symbols" stroke="none" stroke-width="1" fill="none" fill-rule="evenodd">
        <g id="icon/16px/issue-raise">
            <mask id="mask-2" fill="white">
                <use xlink:href="#path-1"></use>
            </mask>
            <use id="Mask" fill="#41516F" xlink:href="#path-1"></use>
        </g>
    </g>
</svg>