<?xml version="1.0" encoding="UTF-8"?>
<svg width="16px" height="16px" viewBox="0 0 16 16" version="1.1" xmlns="http://www.w3.org/2000/svg" xmlns:xlink="http://www.w3.org/1999/xlink">
    <!-- Generator: Sketch 48.2 (47327) - http://www.bohemiancoding.com/sketch -->
    <title>icon/16px/mention-16px</title>
    <desc>Created with Sketch.</desc>
    <defs>
        <path d="M7.60506871,7.64773562 C6.81545534,8.4705509 6.33017307,9.58766108 6.33017307,10.818115 C6.33017307,11.9635784 6.75073125,13.0108151 7.4458624,13.8138399 C4.94285387,14.3039994 1.30709718,13.7624521 1.30709718,12.1891982 C1.30709718,14.5882598 1.30709718,9.63207227 1.30709718,9.63207227 C1.30709718,8.5361534 2.2118602,7.64773562 3.31065894,7.64773562 L7.60506871,7.64773562 Z M14.0964077,8.43892141 C14.6567194,9.16895411 14.8303153,10.0702577 14.5830961,10.9769863 C14.3428518,11.8604653 13.912737,12.4409266 13.3043764,12.7005454 C12.5022704,13.0430873 11.7551882,12.6641213 11.6738151,12.6199473 C11.5025441,12.5199747 11.3738972,12.4037274 11.2684997,12.2805054 C10.9530822,12.5114499 10.6066654,12.6470717 10.2703234,12.6470717 C10.0665032,12.6470717 9.86733291,12.6005728 9.68366226,12.5021501 C9.3868443,12.3432789 9.16519955,12.0627355 9.06212699,11.7124438 C8.9141055,11.2094807 9.00555333,10.6042201 9.31322104,10.0516582 C9.81928405,9.1441547 10.8407098,8.72566462 11.5893421,9.11083049 C11.6296411,9.13098001 11.6552155,9.16895411 11.6924146,9.19375352 C11.8567108,9.08138119 12.0675058,9.0426321 12.2620261,9.12323019 C12.5735688,9.25032718 12.7223652,9.60449379 12.5937183,9.91448644 L12.5425695,10.0361586 C12.2341268,10.777041 12.0016323,11.4032261 12.2713259,11.5636473 C12.2713259,11.5636473 12.2705509,11.5628724 12.2713259,11.5628724 C12.2744258,11.5628724 12.5689189,11.6977192 12.8308627,11.5837969 C13.0726569,11.4752994 13.2726022,11.156007 13.408224,10.6592438 C13.5570204,10.1105568 13.4632477,9.61069364 13.1292306,9.17515396 C12.6533919,8.55594364 11.7528632,8.15605312 10.8360599,8.15605312 C9.3612699,8.15605312 8.16159834,9.34952483 8.16159834,10.818115 C8.16159834,12.2859302 9.3612699,13.4809519 10.8360599,13.4809519 C11.172402,13.4809519 11.4451955,13.7521955 11.4451955,14.0869875 C11.4451955,14.4217796 11.172402,14.6930232 10.8360599,14.6930232 C8.68936083,14.6930232 6.94332722,12.9547394 6.94332722,10.818115 C6.94332722,8.68149066 8.68936083,6.94320687 10.8360599,6.94320687 C12.1380291,6.94320687 13.3872995,7.51669327 14.0964077,8.43892141 Z M11.3498728,11.0854837 C11.6412659,10.566246 11.5994168,10.0532081 11.2506751,9.87418739 C10.8833338,9.68586686 10.3532464,9.96486024 10.0975025,10.4205494 C9.80610936,10.9397871 9.85028331,11.5093986 10.1967001,11.6930693 C10.5423419,11.8767399 11.0584797,11.6047214 11.3498728,11.0854837 Z M5.53426971,6.94320687 C3.97786776,6.94320687 2.71615469,5.6814938 2.71615469,4.12509185 C2.71615469,2.5686899 3.97786776,1.30697683 5.53426971,1.30697683 C7.09067165,1.30697683 8.35238473,2.5686899 8.35238473,4.12509185 C8.35238473,5.6814938 7.09067165,6.94320687 5.53426971,6.94320687 Z" id="path-1"></path>
    </defs>
    <g id="Symbols" stroke="none" stroke-width="1" fill="none" fill-rule="evenodd">
        <g id="icon/16px/mention">
            <mask id="mask-2" fill="white">
                <use xlink:href="#path-1"></use>
            </mask>
            <use id="Combined-Shape" fill="#42526E" xlink:href="#path-1"></use>
        </g>
    </g>
</svg>