<?xml version="1.0" encoding="UTF-8"?>
<svg width="16px" height="16px" viewBox="0 0 16 16" version="1.1" xmlns="http://www.w3.org/2000/svg" xmlns:xlink="http://www.w3.org/1999/xlink">
    <!-- Generator: Sketch 48.2 (47327) - http://www.bohemiancoding.com/sketch -->
    <title>confluence/16px/number-list</title>
    <desc>Created with Sketch.</desc>
    <defs></defs>
    <g id="Editor-icons---v2" stroke="none" stroke-width="1" fill="none" fill-rule="evenodd">
        <g id="confluence/16px/number-list" fill="#42526E">
            <path d="M4.5,12 L5,12 L5,13 L4.5,13 L4.5,14 L2,14 L2,13 L3.5,13 L3.5,12 L2,12 L2,11 L4.5,11 L4.5,12 Z M7,3 L13,3 C13.5522847,3 14,3.44771525 14,4 C14,4.55228475 13.5522847,5 13,5 L7,5 C6.44771525,5 6,4.55228475 6,4 C6,3.44771525 6.44771525,3 7,3 Z M7,7 L13,7 C13.5522847,7 14,7.44771525 14,8 C14,8.55228475 13.5522847,9 13,9 L7,9 C6.44771525,9 6,8.55228475 6,8 C6,7.44771525 6.44771525,7 7,7 Z M7,11 L13,11 C13.5522847,11 14,11.4477153 14,12 C14,12.5522847 13.5522847,13 13,13 L7,13 C6.44771525,13 6,12.5522847 6,12 C6,11.4477153 6.44771525,11 7,11 Z M3,4 L2,4 L2,3 L4,3 L4,6 L3,6 L3,4 Z M2,7 L4.5,7 L4.5,8 L4,8 L4,8.5 L3,8.5 L3,8 L2,8 L2,7 Z M2,9 L5,9 L5,10 L2,10 L2,9 Z" id="Shape"></path>
        </g>
    </g>
</svg>