<?xml version="1.0" encoding="UTF-8"?>
<svg width="16px" height="16px" viewBox="0 0 16 16" version="1.1" xmlns="http://www.w3.org/2000/svg" xmlns:xlink="http://www.w3.org/1999/xlink">
    <!-- Generator: Sketch 48.2 (47327) - http://www.bohemiancoding.com/sketch -->
    <title>icon/16px/page-16px</title>
    <desc>Created with Sketch.</desc>
    <defs>
        <path d="M3.2137021,3.16383992 C3.2137021,2.05714961 4.11426867,1.15999985 5.22043186,1.15999985 L10.7795681,1.15999985 C11.8878544,1.15999985 12.7862979,2.05758288 12.7862979,3.16383992 L12.7862979,12.8361601 C12.7862979,13.9428504 11.8857313,14.8400002 10.7795681,14.8400002 L5.22043186,14.8400002 C4.11214562,14.8400002 3.2137021,13.9424171 3.2137021,12.8361601 L3.2137021,3.16383992 Z M4.58121578,2.52799988 L4.58121578,13.4720001 L11.4187842,13.4720001 L11.4187842,2.52799988 L4.58121578,2.52799988 Z M5.26497263,4.57999992 C5.26497263,4.20223715 5.5747393,3.89599991 5.95775884,3.89599991 L10.0422412,3.89599991 C10.4248564,3.89599991 10.7350274,4.19960345 10.7350274,4.57999992 C10.7350274,4.9577627 10.4252607,5.26399994 10.0422412,5.26399994 L5.95775884,5.26399994 C5.57514358,5.26399994 5.26497263,4.96039639 5.26497263,4.57999992 Z M5.26497263,6.63199997 C5.26497263,6.25423719 5.5747393,5.94799995 5.95775884,5.94799995 L10.0422412,5.94799995 C10.4248564,5.94799995 10.7350274,6.2516035 10.7350274,6.63199997 C10.7350274,7.00976275 10.4252607,7.31599998 10.0422412,7.31599998 L5.95775884,7.31599998 C5.57514358,7.31599998 5.26497263,7.01239644 5.26497263,6.63199997 Z M5.26497263,8.68400002 C5.26497263,8.30623724 5.57871504,8 5.95513552,8 L7.30983711,8 C7.69100355,8 8,8.30360355 8,8.68400002 C8,9.06176279 7.68625758,9.36800003 7.30983711,9.36800003 L5.95513552,9.36800003 C5.57396908,9.36800003 5.26497263,9.06439649 5.26497263,8.68400002 Z" id="path-1"></path>
    </defs>
    <g id="Symbols" stroke="none" stroke-width="1" fill="none" fill-rule="evenodd">
        <g id="icon/16px/page">
            <mask id="mask-2" fill="white">
                <use xlink:href="#path-1"></use>
            </mask>
            <use id="Combined-Shape" fill="#42526E" xlink:href="#path-1"></use>
        </g>
    </g>
</svg>