<?xml version="1.0" encoding="UTF-8"?>
<svg width="16px" height="16px" viewBox="0 0 16 16" version="1.1" xmlns="http://www.w3.org/2000/svg" xmlns:xlink="http://www.w3.org/1999/xlink">
    <!-- Generator: Sketch 48.2 (47327) - http://www.bohemiancoding.com/sketch -->
    <title>bitbucket/16px/source-16px</title>
    <desc>Created with Sketch.</desc>
    <defs>
        <path d="M14.1775,7.220625 L11.2225,4.290625 C10.8305,3.903625 10.1955,3.903625 9.8035,4.290625 C9.4115,4.679625 9.4115,5.309625 9.8035,5.697625 L12.1205,7.994625 L9.7935,10.301625 C9.4025,10.690625 9.4025,11.320625 9.7935,11.708625 C10.1855,12.096625 10.8205,12.096625 11.2125,11.708625 L14.1775,8.768625 C14.6075,8.331625 14.6075,7.646625 14.1775,7.220625 M6.2055,5.697625 L3.8785,8.004625 L6.1965,10.302625 C6.5875,10.690625 6.5875,11.320625 6.1965,11.708625 C5.8045,12.096625 5.1685,12.096625 4.7775,11.708625 L1.8225,8.779625 C1.3925,8.353625 1.3925,7.667625 1.8225,7.231625 L4.7865,4.290625 C5.1795,3.903625 5.8145,3.903625 6.2055,4.290625 C6.5975,4.679625 6.5975,5.309625 6.2055,5.697625" id="path-1"></path>
    </defs>
    <g id="Symbols" stroke="none" stroke-width="1" fill="none" fill-rule="evenodd">
        <g id="bitbucket/16px/source">
            <mask id="mask-2" fill="white">
                <use xlink:href="#path-1"></use>
            </mask>
            <use id="source" fill="#42526E" xlink:href="#path-1"></use>
        </g>
    </g>
</svg>