<?xml version="1.0" encoding="UTF-8"?>
<svg width="16px" height="16px" viewBox="0 0 16 16" version="1.1" xmlns="http://www.w3.org/2000/svg" xmlns:xlink="http://www.w3.org/1999/xlink">
    <!-- Generator: Sketch 48.2 (47327) - http://www.bohemiancoding.com/sketch -->
    <title>icon/16px/star-16px</title>
    <desc>Created with Sketch.</desc>
    <defs>
        <path d="M7.99988693,11.4664955 L11.2492677,13.2570685 L10.6275234,9.45743698 L13.3022781,6.72462972 L9.60984318,6.16224744 L7.99988693,2.74301448 L6.38993067,6.16224744 L2.69749571,6.72462972 L5.37225049,9.45743698 L4.75050612,13.2570685 L7.99988693,11.4664955 Z M7.99988693,13.3305594 L5.53833951,14.6869963 C4.74867686,15.1221404 3.75580377,14.8346938 3.3206954,14.0449664 C3.14420981,13.7246428 3.08038069,13.3543327 3.13944076,12.9934022 L3.62777421,10.0090773 L1.53086894,7.86666115 C0.900194066,7.2222982 0.911247654,6.18863393 1.55555782,5.55790739 C1.80003314,5.31858621 2.11350833,5.1621214 2.45171025,5.11061101 L5.2837603,4.67927105 L6.52294754,2.04747913 C6.90704964,1.23172121 7.8796742,0.881820534 8.6953653,1.2659541 C9.03878302,1.42767987 9.31511379,1.70403328 9.47682632,2.04747913 L10.7160136,4.67927105 L13.5480636,5.11061101 C14.4393885,5.24636569 15.0519082,6.07903739 14.9161646,6.97043531 C14.8646585,7.30866494 14.7082065,7.62216581 14.4689049,7.86666115 L12.3719996,10.0090773 L12.8603331,12.9934022 C13.0059401,13.8832419 12.4026793,14.7226469 11.5129125,14.8682658 C11.1520115,14.9273308 10.7817317,14.8634964 10.4614343,14.6869963 L7.99988693,13.3305594 Z" id="path-1"></path>
    </defs>
    <g id="Symbols" stroke="none" stroke-width="1" fill="none" fill-rule="evenodd">
        <g id="icon/16px/star">
            <mask id="mask-2" fill="white">
                <use xlink:href="#path-1"></use>
            </mask>
            <use id="star-small" fill="#42526E" fill-rule="nonzero" xlink:href="#path-1"></use>
        </g>
    </g>
</svg>