<?xml version="1.0" encoding="UTF-8"?>
<svg width="16px" height="16px" viewBox="0 0 16 16" version="1.1" xmlns="http://www.w3.org/2000/svg" xmlns:xlink="http://www.w3.org/1999/xlink">
    <!-- Generator: Sketch 48.2 (47327) - http://www.bohemiancoding.com/sketch -->
    <title>icon/16px/vid-play-16px</title>
    <desc>Created with Sketch.</desc>
    <defs>
        <path d="M4.05416493,1.35093766 C3.61334171,1.01844478 3.25598389,1.19833873 3.25598389,1.74461116 L3.25598389,14.2395453 C3.25598389,14.789458 3.62225433,14.9787545 4.07100026,14.6645018 L12.4003292,8.83154774 C12.8504504,8.51633198 12.8608867,7.99344687 12.4171646,7.65876751 L4.05416493,1.35093766 Z" id="path-1"></path>
    </defs>
    <g id="Symbols" stroke="none" stroke-width="1" fill="none" fill-rule="evenodd">
        <g id="icon/16px/vid-play">
            <mask id="mask-2" fill="white">
                <use xlink:href="#path-1"></use>
            </mask>
            <use id="Page-1" fill="#42526E" xlink:href="#path-1"></use>
        </g>
    </g>
</svg>