{
    "specific": [
        {
            "from": {
                "name": "White",
                "raw": "#fff"
            },
            "to": {
                "name": "N0",
                "raw": "#fff"
            },
            "notes": "Makes sense, right?"
        },
        {
            "from": {
                "name": "Light gray",
                "raw": "#f5f5f5"
            },
            "to": {
                "name": "N20",
                "raw": "#f4f5f7"
            },
            "notes": "Various panels in AUI (such as the page background, sidebar, footer, etc.) were set to N20."
        },
        {
            "from": {
                "name": "Silver",
                "raw": "#e9e9e9"
            },
            "to": {
                "name": "N30",
                "raw": "#ebecf0"
            },
            "notes": "Very little \"silver\" is used in AUI, actually."
        },
        {
            "from": {
                "name": "Silver",
                "raw": "#e9e9e9"
            },
            "to": {
                "name": "N30A",
                "raw": "rgba(9, 30, 66, 0.08)"
            },
            "notes": "Remember when we said AUI didn't use much \"silver\"? We lied. AUI uses an alpha-transparent variant, N30A, as the border and background colour of many components, such as normal buttons, hovered and selected navigation links, hovered or focussed table rows... generally if a component is interactive, its hover or focus state will use this colour."
        },
        {
            "from": {
                "name": "Ash grey",
                "raw": "#ccc"
            },
            "to": {
                "name": "N40",
                "raw": "#dfe1e5"
            },
            "notes": "Most of AUI's component border colours (tables, dialogs, dropdowns, etc.) were set to N40."
        },
        {
            "from": {
                "name": "Ash grey",
                "raw": "#ccc"
            },
            "to": {
                "name": "N50",
                "raw": "#c1c7d0"
            },
            "notes": "AUI's form field borders were temporarily set to N50, which maintains a similar lightness to its previous value."
        },
        {
            "from": {
                "name": "Grey",
                "raw": "#999"
            },
            "to": {
                "name": "N80",
                "raw": "#97a0af"
            },
            "notes": "Placeholder text and disabled text in form fields is now set to N80."
        },
        {
            "from": {
                "name": "Grey",
                "raw": "#999"
            },
            "to": {
                "name": "N100",
                "raw": "#7a869a"
            },
            "notes": "Disabled text is now set to N100."
        },
        {
            "from": {
                "name": "Medium gray",
                "raw": "#707070"
            },
            "to": {
                "name": "N100",
                "raw": "#7a869a"
            },
            "notes": "Disabled text is now set to N100."
        },
        {
            "from": {
                "name": "Medium gray",
                "raw": "#707070"
            },
            "to": {
                "name": "N200",
                "raw": "#6b778c"
            },
            "notes": "Low-level headings (such as those in labels, field groupings, etc.) are now set to N200."
        },
        {
            "from": {
                "name": "Medium gray",
                "raw": "#707070"
            },
            "to": {
                "name": "N400",
                "raw": "#505f79"
            },
            "notes": "Hint text rendered in component footers (such as in dialogs, date picker, form field descriptions, etc.) were set to N400."
        },
        {
            "from": {
                "name": "Charcoal",
                "raw": "#333"
            },
            "to": {
                "name": "N100",
                "raw": "#7a869a"
            },
            "notes": "Table headings are now set to N100."
        },
        {
            "from": {
                "name": "Charcoal",
                "raw": "#333"
            },
            "to": {
                "name": "N200",
                "raw": "#6b778C"
            },
            "notes": "Low-level headings (such as those in dropdowns, inline dialogs, vertical navigation, etc.) and the h6 element are now set to N200."
        },
        {
            "from": {
                "name": "Charcoal",
                "raw": "#333"
            },
            "to": {
                "name": "N800",
                "raw": "#172b4d"
            },
            "notes": "This is the new default text colour."
        },
        {
            "from": {
                "name": "Black",
                "raw": "#000"
            },
            "to": {
                "name": "N900",
                "raw": "#091e42"
            },
            "notes": "There is no black in ADG3, so AUI takes the darkest neutral colour."
        },
        {
            "from": {
                "name": "Navy",
                "raw": "#205081"
            },
            "to": {
                "name": "B500",
                "raw": "#0747A6"
            },
            "notes": "This is the new application header colour."
        },
        {
            "from": {
                "name": "\"Button Blue\"",
                "raw": "#2a67a5"
            },
            "to": {
                "name": "B400",
                "raw": "#0052cc"
            },
            "notes": "Primary buttons and actions are now set to B400. The old colour didn't have a name, so we just made it up then."
        },
        {
            "from": {
                "name": "Bright Blue 1",
                "raw": "#3b73af"
            },
            "to": {
                "name": "B400",
                "raw": "#0052cc"
            },
            "notes": "Hyperlinks and link-looking things are now set to B400."
        },
        {
            "from": {
                "name": "Blue",
                "raw": "#3572b0"
            },
            "to": {
                "name": "B300",
                "raw": "#0065ff"
            },
            "notes": "We use this for primary buttons in the application header, as well as dynamic states for interactive elements such as links and progress indicators."
        },
        {
            "from": {
                "name": "Bright blue 2",
                "raw": "#59afe1"
            },
            "to": {
                "name": "B100",
                "raw": "#4c9aff"
            },
            "notes": "This color was rarely, if ever used in AUI. It will soon become the focus colour for most fields."
        },
        {
            "from": {
                "name": "Orange",
                "raw": "#f79232"
            },
            "to": {
                "name": "P300",
                "raw": "#6554c0"
            },
            "notes": "The in-product help colour has changed to P300. Orange is the old Black, we guess."
        },
        {
            "from": {
                "name": "Y500",
                "raw": "#ff8b00"
            },
            "to": {
                "name": "P300",
                "raw": "#6554c0"
            },
            "notes": "The in-product help colour has changed to P300. This should be used for feature discovery, blank states, product tours, and other attention-grabbers for things that are new or informative."
        }
    ],
    "generic": [
        {
            "from": {
                "name": "Brown",
                "raw": "#815b3a"
            },
            "to": {
                "name": "R500",
                "raw": "#bf2600"
            },
            "notes": "There is no equivalent brown colour, so we threw this in the red bucket."
        },
        {
            "from": {
                "name": "Red",
                "raw": "#d04437"
            },
            "to": {
                "name": "R400",
                "raw": "#DE350B"
            },
            "notes": "Error text, error banners, error lozenges, and other error-like things are a darkish red, so as not to sear user's eyeballs when they have to read content presented in it."
        },
        {
            "from": {
                "name": "Red",
                "raw": "#d04437"
            },
            "to": {
                "name": "R300",
                "raw": "#ff5630"
            },
            "notes": "When it won't sear the user's eyeballs, we use this for error-like things, such as the icons in error message flags."
        },
        {
            "from": {
                "name": "Cheeto orange",
                "raw": "#f79232"
            },
            "to": {
                "name": "Y500",
                "raw": "#ff8b00"
            }
        },
        {
            "from": {
                "name": "Tan",
                "raw": "#f1a257"
            },
            "to": {
                "name": "Y200",
                "raw": "#ffc400"
            }
        },
        {
            "from": {
                "name": "Light brown",
                "raw": "#d39c3f"
            },
            "to": {
                "name": "Y75",
                "raw": "#fff0b2"
            },
            "notes": "The old \"light brown\" wasn't actually that \"light\", was it?"
        },
        {
            "from": {
                "name": "Yellow",
                "raw": "#f6c342"
            },
            "to": {
                "name": "Y300",
                "raw": "#ffab00"
            },
            "notes": "Primary for primary."
        },
        {
            "from": {
                "name": "Pale yellow",
                "raw": "#fffdf6"
            },
            "to": {
                "name": "Y50",
                "raw": "#fffae6"
            },
            "notes": "It's still as pale as ever, and just as yellow."
        },
        {
            "from": {
                "name": "Lime green",
                "raw": "#8eb021"
            },
            "to": {
                "name": "G75",
                "raw": "#abf5d1"
            },
            "notes": "With apologies to the citrus fans amongst you."
        },
        {
            "from": {
                "name": "Mid green",
                "raw": "#67ab49"
            },
            "to": {
                "name": "G200",
                "raw": "#57d9a3"
            }
        },
        {
            "from": {
                "name": "Green",
                "raw": "#14892c"
            },
            "to": {
                "name": "G400",
                "raw": "#00875A"
            },
            "notes": "Used in success lozenges and toggle buttons."
        },
        {
            "from": {
                "name": "Green",
                "raw": "#14892c"
            },
            "to": {
                "name": "G300",
                "raw": "#36b37e"
            },
            "notes": "In most other cases where green is used, it is set to G300."
        },
        {
            "from": {
                "name": "Slate",
                "raw": "#4a6785"
            },
            "to": {
                "name": "T500",
                "raw": "#008da6"
            }
        },
        {
            "from": {
                "name": "Cyan",
                "raw": "#59afe1"
            },
            "to": {
                "name": "T200",
                "raw": "#00b8d9"
            },
            "notes": "Look, we're developers. We were never that great at naming things after what they represented."
        },
        {
            "from": {
                "name": "Cool blue",
                "raw": "#84bbc6"
            },
            "to": {
                "name": "T75",
                "raw": "#79e2f2"
            }
        },
        {
            "from": {
                "name": "Pale blue",
                "raw": "#ebf2f9"
            },
            "to": {
                "name": "B50",
                "raw": "#deebff"
            }
        },
        {
            "from": {
                "name": "Mauve",
                "raw": "#ac707a"
            },
            "to": {
                "name": "P200",
                "raw": "#8777d9"
            }
        },
        {
            "from": {
                "name": "Violet",
                "raw": "#654982"
            },
            "to": {
                "name": "P500",
                "raw": "#403294"
            }
        },
        {
            "from": {
                "name": "Bright pink",
                "raw": "#f15c75"
            },
            "to": {
                "name": "R200",
                "raw": "#ff7452"
            }
        },
        {
            "from": {
                "name": "Rosie",
                "raw": "#f691b2"
            },
            "to": {
                "name": "R75",
                "raw": "#ffbdad"
            }
        }
    ]
}
